{
  "CHANGELOG": "f1d885ee4bf1888841104e921a03c881",
  "CONTRIBUTING.md": "e165c224f5cf18e14c5bcb1d24f23d75",
  "CONTRIBUTORS": "ccd05b41a94ee89f67cc20f3d3b0a6d3",
  "LICENSE": "320a45413b8e94d84ec24e1084c8b5bf",
  "Makefile": "90797d753ef0dfe00759c723153ccbcd",
  "README.md": "ddda973ca6ac3bf3794cac46f27d6947",
  "Vagrantfile": "7d1ad3b3f7d66b49c12eb85cc93e9306",
  "Vagrantfile.d/manifests/site.pp": "907df4343d1526b4ea7fd1551759814f",
  "Vagrantfile.d/server.sh": "b8e187fdeeb70d8e4948a38a37604506",
  "doc/_index.html": "de3a403b5c82522c472fd92dff946e3f",
  "doc/css/common.css": "e19d0e0e1d66eae21212f0de39c4c7cf",
  "doc/css/full_list.css": "e1ec5115f4678514de990e9796ce3734",
  "doc/css/style.css": "6d6fdb2b2a289bc7fcdc7e14112f6a9c",
  "doc/file.README.html": "d5eee19c747ae1d7c814d4604800255b",
  "doc/frames.html": "f6bf7ff3e9c1d55e138595e96cb6e924",
  "doc/index.html": "6786f625ae370378eaa0a81c57adb7ce",
  "doc/js/app.js": "4a445ef2b0260c1903fdd5dfa222a4c5",
  "doc/js/full_list.js": "3ce34d62498c53ac637516bf4bf2afab",
  "doc/js/jquery.js": "ddb84c1587287b2df08966081ef063bf",
  "doc/puppet_class_list.html": "45db721d39f2b5fb795dbf5e96ab053f",
  "doc/puppet_classes/logstash.html": "e76bbf59d64686c1801c789fb45ba8f5",
  "doc/puppet_classes/logstash_3A_3Aconfig.html": "4a556f4c2b56a2efd3c5dc91f8d27964",
  "doc/puppet_classes/logstash_3A_3Apackage.html": "f5dc51e907af8c5d0daa04c65ede9757",
  "doc/puppet_classes/logstash_3A_3Arepo.html": "75a7fdc25942430fb86a12bde0bd7839",
  "doc/puppet_classes/logstash_3A_3Aservice.html": "8ad3b438983f58c9d7d78f69cfd99336",
  "doc/puppet_defined_type_list.html": "e36f7ed94cec5dabb9dee27afa6e41d0",
  "doc/puppet_defined_types/logstash_3A_3Aconfigfile.html": "2b07cb4c1a801edb2dfdad42d4cebc59",
  "doc/puppet_defined_types/logstash_3A_3Apatternfile.html": "1c88d90d53d466f9b1aaf0297c9c6680",
  "doc/puppet_defined_types/logstash_3A_3Aplugin.html": "23e30bd45ced9cad6ee10b1b6b28c59a",
  "doc/top-level-namespace.html": "995ce9ef9b9fe42c32767316f9c61ece",
  "files/grok-pattern-0": "419f29f042455c0074f0b8ba544a82f8",
  "files/grok-pattern-1": "bcbfca663965c78d248802492aa75f59",
  "files/logstash-output-cowsay-5.0.0.zip": "4714feef2b951352fdbcf2c3093478cf",
  "files/null-output.conf": "da6c9eb239e0bb8775c03cb2e1e8258e",
  "manifests/config.pp": "24be3db35b6e3b4eab07fb7901b30afa",
  "manifests/configfile.pp": "c2a88c662c57c3cecac0939700c29a7c",
  "manifests/init.pp": "8d78e551c2ad6419f91589d50e4d4abb",
  "manifests/package/install.pp": "87dd3c706a6cb9c635ab328477dc3fc1",
  "manifests/package.pp": "b0de4a75e587d0a3171085f89fd31260",
  "manifests/patternfile.pp": "12b5e2b8bc2fc3c79e02dfa9b85c6275",
  "manifests/plugin.pp": "96b6f136633d423da5df1da468ffd867",
  "manifests/service.pp": "79c02bcf180e7411e348561e6ec1c4c5",
  "metadata.json": "33df1713b357df6683122c6e3f7e5f81",
  "templates/configfile-template.erb": "2814d2f5ccd0556a0c5c53af4d613050",
  "templates/jvm.options.erb": "01aee9a94bda5500caf76a09d4d899b9",
  "templates/logstash.yml.erb": "1ad6d8224d71949c384df190f980179a",
  "templates/pipelines.yml.erb": "5e68d74b7a3c8c93f841891988ac117a",
  "templates/startup.options.erb": "12c180798e5b0d487f554082248dc2f2"
}